2020-07-01T21:50:03.8707043+07:00 0HM0TPO3RCGFL:00000001 [INF] Request starting HTTP/1.1 GET https://localhost:5001/   (ca22a1cb)
2020-07-01T21:50:04.9946440+07:00 0HM0TPO3RCGFL:00000001 [INF] Route matched with "{action = \"Index\", controller = \"Home\", area = \"\"}". Executing controller action with signature "Microsoft.AspNetCore.Mvc.IActionResult Index()" on controller "DormitoryManagement.Controllers.HomeController" ("DormitoryManagement"). (122b2fdf)
2020-07-01T21:50:05.0276322+07:00 0HM0TPO3RCGFL:00000001 [INF] Executing action method "DormitoryManagement.Controllers.HomeController.Index (DormitoryManagement)" - Validation state: Valid (dad538d7)
2020-07-01T21:50:05.0449843+07:00 0HM0TPO3RCGFL:00000001 [INF] Executed action method "DormitoryManagement.Controllers.HomeController.Index (DormitoryManagement)", returned result "Microsoft.AspNetCore.Mvc.ViewResult" in 4.5979ms. (50a9e262)
2020-07-01T21:50:05.1414814+07:00 0HM0TPO3RCGFL:00000001 [INF] Executing ViewResult, running view "Index". (c83d0e25)
2020-07-01T21:50:05.6183976+07:00 0HM0TPO3RCGFL:00000001 [INF] Entity Framework Core "2.1.14-servicing-32113" initialized '"DormitoryContext"' using provider '"Microsoft.EntityFrameworkCore.SqlServer"' with options: "MigrationsAssembly=DormitoryManagement, Version=1.0.0.0, Culture=neutral, PublicKeyToken=null " (9958f5bb)
2020-07-01T21:50:05.7692084+07:00 0HM0TPO3RCGFL:00000001 [INF] Executed DbCommand ("41"ms) [Parameters=[""], CommandType='Text', CommandTimeout='30']"
""SELECT [f].[KeyId], [f].[DateCreated], [f].[DateModified], [f].[IconCss], [f].[Name], [f].[ParentId], [f].[SortOrder], [f].[Status], [f].[URL]
FROM [Function] AS [f]" (0723d8ff)
2020-07-01T21:50:06.1076365+07:00 0HM0TPO3RCGFL:00000001 [INF] Executed ViewResult - view "Index" executed in 1020.1141ms. (f66409e9)
2020-07-01T21:50:06.6939179+07:00 0HM0TPO3RCGFL:00000001 [INF] Executed action "DormitoryManagement.Controllers.HomeController.Index (DormitoryManagement)" in 1161.1916ms (afa2e885)
2020-07-01T21:50:07.8742996+07:00 0HM0TPO3RCGFM:00000001 [INF] Request starting HTTP/1.1 GET https://localhost:5001/node_modules/flag-icon-css/css/flag-icon.min.css   (ca22a1cb)
2020-07-01T21:50:07.8830740+07:00 0HM0TPO3RCGFO:00000001 [INF] Request starting HTTP/1.1 GET https://localhost:5001/node_modules/jvectormap/jquery-jvectormap.css   (ca22a1cb)
2020-07-01T21:50:07.8831806+07:00 0HM0TPO3RCGFL:00000001 [INF] Request finished in 3993.4194ms 200 text/html; charset=utf-8 (791a596a)
2020-07-01T21:50:07.9004184+07:00 0HM0TPO3RCGFQ:00000001 [INF] Request starting HTTP/1.1 GET https://localhost:5001/node_modules/perfect-scrollbar/css/perfect-scrollbar.css   (ca22a1cb)
2020-07-01T21:50:07.9307845+07:00 0HM0TPO3RCGFL:00000002 [INF] Request starting HTTP/1.1 GET https://localhost:5001/node_modules/mdi/css/materialdesignicons.min.css   (ca22a1cb)
2020-07-01T21:50:08.0194017+07:00 0HM0TPO3RCGFM:00000001 [INF] Sending file. Request path: '"/node_modules/flag-icon-css/css/flag-icon.min.css"'. Physical path: '"D:\Dormitory\domitory\DormitoryManagement\wwwroot\node_modules\flag-icon-css\css\flag-icon.min.css"' (27b0a520)
2020-07-01T21:50:08.1827864+07:00 0HM0TPO3RCGFQ:00000001 [INF] Sending file. Request path: '"/node_modules/perfect-scrollbar/css/perfect-scrollbar.css"'. Physical path: '"D:\Dormitory\domitory\DormitoryManagement\wwwroot\node_modules\perfect-scrollbar\css\perfect-scrollbar.css"' (27b0a520)
2020-07-01T21:50:08.2824520+07:00 0HM0TPO3RCGFO:00000001 [INF] Sending file. Request path: '"/node_modules/jvectormap/jquery-jvectormap.css"'. Physical path: '"D:\Dormitory\domitory\DormitoryManagement\wwwroot\node_modules\jvectormap\jquery-jvectormap.css"' (27b0a520)
2020-07-01T21:50:08.3131801+07:00 0HM0TPO3RCGFM:00000001 [INF] Request finished in 183.5012ms 200 text/css (791a596a)
2020-07-01T21:50:08.3229020+07:00 0HM0TPO3RCGFO:00000001 [INF] Request finished in 411.2327ms 200 text/css (791a596a)
2020-07-01T21:50:08.3353080+07:00 0HM0TPO3RCGFP:00000001 [INF] Request starting HTTP/1.1 GET https://localhost:5001/lib/notifyjs/dist/styles/metro/notify-metro.css   (ca22a1cb)
2020-07-01T21:50:08.4426732+07:00 0HM0TPO3RCGFQ:00000001 [INF] Request finished in 313.8585ms 200 text/css (791a596a)
2020-07-01T21:50:08.4822313+07:00 0HM0TPO3RCGFL:00000002 [INF] Sending file. Request path: '"/node_modules/mdi/css/materialdesignicons.min.css"'. Physical path: '"D:\Dormitory\domitory\DormitoryManagement\wwwroot\node_modules\mdi\css\materialdesignicons.min.css"' (27b0a520)
2020-07-01T21:50:08.5055567+07:00 0HM0TPO3RCGFP:00000001 [INF] Sending file. Request path: '"/lib/notifyjs/dist/styles/metro/notify-metro.css"'. Physical path: '"D:\Dormitory\domitory\DormitoryManagement\wwwroot\lib\notifyjs\dist\styles\metro\notify-metro.css"' (27b0a520)
2020-07-01T21:50:08.5129824+07:00 0HM0TPO3RCGFL:00000002 [INF] Request finished in 598.4399ms 200 text/css (791a596a)
2020-07-01T21:50:08.5349733+07:00 0HM0TPO3RCGFP:00000001 [INF] Request finished in 202.2593ms 200 text/css (791a596a)
2020-07-01T21:50:08.5812611+07:00 0HM0TPO3RCGFM:00000002 [INF] Request starting HTTP/1.1 GET https://localhost:5001/node_modules/jquery/dist/jquery.min.js   (ca22a1cb)
2020-07-01T21:50:08.7756449+07:00 0HM0TPO3RCGFN:00000001 [INF] Request starting HTTP/1.1 GET https://localhost:5001/css/style.css   (ca22a1cb)
2020-07-01T21:50:08.9038619+07:00 0HM0TPO3RCGFQ:00000002 [INF] Request starting HTTP/1.1 GET https://localhost:5001/node_modules/font-awesome/css/font-awesome.min.css   (ca22a1cb)
2020-07-01T21:50:08.9321811+07:00 0HM0TPO3RCGFO:00000002 [INF] Request starting HTTP/1.1 GET https://localhost:5001/node_modules/popper.js/dist/umd/popper.min.js   (ca22a1cb)
2020-07-01T21:50:08.9675109+07:00 0HM0TPO3RCGFL:00000003 [INF] Request starting HTTP/1.1 GET https://localhost:5001/node_modules/bootstrap/dist/js/bootstrap.min.js   (ca22a1cb)
2020-07-01T21:50:09.0078731+07:00 0HM0TPO3RCGFP:00000002 [INF] Request starting HTTP/1.1 GET https://localhost:5001/node_modules/perfect-scrollbar/dist/perfect-scrollbar.min.js   (ca22a1cb)
2020-07-01T21:50:09.0289134+07:00 0HM0TPO3RCGFQ:00000002 [INF] Sending file. Request path: '"/node_modules/font-awesome/css/font-awesome.min.css"'. Physical path: '"D:\Dormitory\domitory\DormitoryManagement\wwwroot\node_modules\font-awesome\css\font-awesome.min.css"' (27b0a520)
2020-07-01T21:50:09.0513045+07:00 0HM0TPO3RCGFM:00000002 [INF] Sending file. Request path: '"/node_modules/jquery/dist/jquery.min.js"'. Physical path: '"D:\Dormitory\domitory\DormitoryManagement\wwwroot\node_modules\jquery\dist\jquery.min.js"' (27b0a520)
2020-07-01T21:50:09.0615547+07:00 0HM0TPO3RCGFO:00000002 [INF] Sending file. Request path: '"/node_modules/popper.js/dist/umd/popper.min.js"'. Physical path: '"D:\Dormitory\domitory\DormitoryManagement\wwwroot\node_modules\popper.js\dist\umd\popper.min.js"' (27b0a520)
2020-07-01T21:50:09.0749605+07:00 0HM0TPO3RCGFM:00000002 [INF] Request finished in 538.5279ms 200 application/javascript (791a596a)
2020-07-01T21:50:09.0884305+07:00 0HM0TPO3RCGFL:00000003 [INF] Sending file. Request path: '"/node_modules/bootstrap/dist/js/bootstrap.min.js"'. Physical path: '"D:\Dormitory\domitory\DormitoryManagement\wwwroot\node_modules\bootstrap\dist\js\bootstrap.min.js"' (27b0a520)
2020-07-01T21:50:09.1007230+07:00 0HM0TPO3RCGFP:00000002 [INF] Sending file. Request path: '"/node_modules/perfect-scrollbar/dist/perfect-scrollbar.min.js"'. Physical path: '"D:\Dormitory\domitory\DormitoryManagement\wwwroot\node_modules\perfect-scrollbar\dist\perfect-scrollbar.min.js"' (27b0a520)
2020-07-01T21:50:09.1176849+07:00 0HM0TPO3RCGFL:00000003 [INF] Request finished in 162.9017ms 200 application/javascript (791a596a)
2020-07-01T21:50:09.1499460+07:00 0HM0TPO3RCGFP:00000002 [INF] Request finished in 175.0749ms 200 application/javascript (791a596a)
2020-07-01T21:50:09.1661947+07:00 0HM0TPO3RCGFO:00000002 [INF] Request finished in 586.7087ms 200 application/javascript (791a596a)
2020-07-01T21:50:09.1902558+07:00 0HM0TPO3RCGFM:00000003 [INF] Request starting HTTP/1.1 GET https://localhost:5001/node_modules/bootstrap-datepicker/dist/js/bootstrap-datepicker.min.js   (ca22a1cb)
2020-07-01T21:50:09.2052947+07:00 0HM0TPO3RCGFP:00000003 [INF] Request starting HTTP/1.1 GET https://localhost:5001/node_modules/jvectormap/tests/assets/jquery-jvectormap-world-mill-en.js   (ca22a1cb)
2020-07-01T21:50:09.2236525+07:00 0HM0TPO3RCGFL:00000004 [INF] Request starting HTTP/1.1 GET https://localhost:5001/js/off-canvas.js   (ca22a1cb)
2020-07-01T21:50:09.2678395+07:00 0HM0TPO3RCGFO:00000003 [INF] Request starting HTTP/1.1 GET https://localhost:5001/node_modules/jvectormap/jquery-jvectormap.min.js   (ca22a1cb)
2020-07-01T21:50:09.2928607+07:00 0HM0TPO3RCGFQ:00000002 [INF] Request finished in 449.8568ms 200 text/css (791a596a)
2020-07-01T21:50:09.3046576+07:00 0HM0TPO3RCGFM:00000003 [INF] Sending file. Request path: '"/node_modules/bootstrap-datepicker/dist/js/bootstrap-datepicker.min.js"'. Physical path: '"D:\Dormitory\domitory\DormitoryManagement\wwwroot\node_modules\bootstrap-datepicker\dist\js\bootstrap-datepicker.min.js"' (27b0a520)
2020-07-01T21:50:09.3565581+07:00 0HM0TPO3RCGFL:00000004 [INF] Sending file. Request path: '"/js/off-canvas.js"'. Physical path: '"D:\Dormitory\domitory\DormitoryManagement\wwwroot\js\off-canvas.js"' (27b0a520)
2020-07-01T21:50:09.3684054+07:00 0HM0TPO3RCGFM:00000003 [INF] Request finished in 154.6661ms 200 application/javascript (791a596a)
2020-07-01T21:50:09.4014818+07:00 0HM0TPO3RCGFL:00000004 [INF] Request finished in 166.4897ms 200 application/javascript (791a596a)
2020-07-01T21:50:09.4218313+07:00 0HM0TPO3RCGFO:00000003 [INF] Sending file. Request path: '"/node_modules/jvectormap/jquery-jvectormap.min.js"'. Physical path: '"D:\Dormitory\domitory\DormitoryManagement\wwwroot\node_modules\jvectormap\jquery-jvectormap.min.js"' (27b0a520)
2020-07-01T21:50:09.4531987+07:00 0HM0TPO3RCGFQ:00000003 [INF] Request starting HTTP/1.1 GET https://localhost:5001/node_modules/chart.js/dist/Chart.min.js   (ca22a1cb)
2020-07-01T21:50:09.4950361+07:00 0HM0TPO3RCGFO:00000003 [INF] Request finished in 259.7903ms 200 application/javascript (791a596a)
2020-07-01T21:50:09.5027857+07:00 0HM0TPO3RCGFM:00000004 [INF] Request starting HTTP/1.1 GET https://localhost:5001/js/settings.js   (ca22a1cb)
2020-07-01T21:50:09.5299458+07:00 0HM0TPO3RCGFL:00000005 [INF] Request starting HTTP/1.1 GET https://localhost:5001/js/misc.js   (ca22a1cb)
2020-07-01T21:50:09.5588932+07:00 0HM0TPO3RCGFP:00000003 [INF] Sending file. Request path: '"/node_modules/jvectormap/tests/assets/jquery-jvectormap-world-mill-en.js"'. Physical path: '"D:\Dormitory\domitory\DormitoryManagement\wwwroot\node_modules\jvectormap\tests\assets\jquery-jvectormap-world-mill-en.js"' (27b0a520)
2020-07-01T21:50:09.5791560+07:00 0HM0TPO3RCGFO:00000004 [INF] Request starting HTTP/1.1 GET https://localhost:5001/js/hoverable-collapse.js   (ca22a1cb)
2020-07-01T21:50:09.6427806+07:00 0HM0TPO3RCGFL:00000005 [INF] Sending file. Request path: '"/js/misc.js"'. Physical path: '"D:\Dormitory\domitory\DormitoryManagement\wwwroot\js\misc.js"' (27b0a520)
2020-07-01T21:50:09.6676421+07:00 0HM0TPO3RCGFP:00000003 [INF] Request finished in 392.8211ms 200 application/javascript (791a596a)
2020-07-01T21:50:09.6764999+07:00 0HM0TPO3RCGFL:00000005 [INF] Request finished in 161.0486ms 200 application/javascript (791a596a)
2020-07-01T21:50:09.7454779+07:00 0HM0TPO3RCGFO:00000004 [INF] Sending file. Request path: '"/js/hoverable-collapse.js"'. Physical path: '"D:\Dormitory\domitory\DormitoryManagement\wwwroot\js\hoverable-collapse.js"' (27b0a520)
2020-07-01T21:50:09.7551482+07:00 0HM0TPO3RCGFP:00000004 [INF] Request starting HTTP/1.1 GET https://localhost:5001/js/todolist.js   (ca22a1cb)
2020-07-01T21:50:09.7645204+07:00 0HM0TPO3RCGFL:00000006 [INF] Request starting HTTP/1.1 GET https://localhost:5001/lib/mustache/mustache.js   (ca22a1cb)
2020-07-01T21:50:09.7810266+07:00 0HM0TPO3RCGFO:00000004 [INF] Request finished in 247.1755ms 200 application/javascript (791a596a)
2020-07-01T21:50:09.8082741+07:00 0HM0TPO3RCGFQ:00000003 [INF] Sending file. Request path: '"/node_modules/chart.js/dist/Chart.min.js"'. Physical path: '"D:\Dormitory\domitory\DormitoryManagement\wwwroot\node_modules\chart.js\dist\Chart.min.js"' (27b0a520)
2020-07-01T21:50:09.8187312+07:00 0HM0TPO3RCGFO:00000005 [INF] Request starting HTTP/1.1 GET https://localhost:5001/js/dashboard.js   (ca22a1cb)
2020-07-01T21:50:09.8459871+07:00 0HM0TPO3RCGFQ:00000003 [INF] Request finished in 517.8624ms 200 application/javascript (791a596a)
2020-07-01T21:50:09.8664973+07:00 0HM0TPO3RCGFP:00000004 [INF] Sending file. Request path: '"/js/todolist.js"'. Physical path: '"D:\Dormitory\domitory\DormitoryManagement\wwwroot\js\todolist.js"' (27b0a520)
2020-07-01T21:50:09.8901778+07:00 0HM0TPO3RCGFL:00000006 [INF] Sending file. Request path: '"/lib/mustache/mustache.js"'. Physical path: '"D:\Dormitory\domitory\DormitoryManagement\wwwroot\lib\mustache\mustache.js"' (27b0a520)
2020-07-01T21:50:09.8962685+07:00 0HM0TPO3RCGFP:00000004 [INF] Request finished in 135.2378ms 200 application/javascript (791a596a)
2020-07-01T21:50:09.9047179+07:00 0HM0TPO3RCGFL:00000006 [INF] Request finished in 157.9601ms 200 application/javascript (791a596a)
2020-07-01T21:50:09.9063475+07:00 0HM0TPO3RCGFO:00000005 [INF] Sending file. Request path: '"/js/dashboard.js"'. Physical path: '"D:\Dormitory\domitory\DormitoryManagement\wwwroot\js\dashboard.js"' (27b0a520)
2020-07-01T21:50:09.9249970+07:00 0HM0TPO3RCGFO:00000005 [INF] Request finished in 125.6903ms 200 application/javascript (791a596a)
2020-07-01T21:50:09.9305386+07:00 0HM0TPO3RCGFL:00000007 [INF] Request starting HTTP/1.1 GET https://localhost:5001/lib/notifyjs/dist/styles/metro/notify-metro.js   (ca22a1cb)
2020-07-01T21:50:09.9418165+07:00 0HM0TPO3RCGFP:00000005 [INF] Request starting HTTP/1.1 GET https://localhost:5001/app/controllers/shared/dormitory.js   (ca22a1cb)
2020-07-01T21:50:09.9445059+07:00 0HM0TPO3RCGFO:00000006 [INF] Request starting HTTP/1.1 GET https://localhost:5001/lib/bootbox/bootbox.js   (ca22a1cb)
2020-07-01T21:50:09.9460264+07:00 0HM0TPO3RCGFQ:00000004 [INF] Request starting HTTP/1.1 GET https://localhost:5001/lib/notifyjs/dist/notify.js   (ca22a1cb)
2020-07-01T21:50:09.9600107+07:00 0HM0TPO3RCGFL:00000007 [INF] Sending file. Request path: '"/lib/notifyjs/dist/styles/metro/notify-metro.js"'. Physical path: '"D:\Dormitory\domitory\DormitoryManagement\wwwroot\lib\notifyjs\dist\styles\metro\notify-metro.js"' (27b0a520)
2020-07-01T21:50:09.9714378+07:00 0HM0TPO3RCGFM:00000004 [INF] Sending file. Request path: '"/js/settings.js"'. Physical path: '"D:\Dormitory\domitory\DormitoryManagement\wwwroot\js\settings.js"' (27b0a520)
2020-07-01T21:50:09.9840833+07:00 0HM0TPO3RCGFL:00000007 [INF] Request finished in 53.8856ms 200 application/javascript (791a596a)
2020-07-01T21:50:09.9910846+07:00 0HM0TPO3RCGFP:00000005 [INF] Sending file. Request path: '"/app/controllers/shared/dormitory.js"'. Physical path: '"D:\Dormitory\domitory\DormitoryManagement\wwwroot\app\controllers\shared\dormitory.js"' (27b0a520)
2020-07-01T21:50:09.9959495+07:00 0HM0TPO3RCGFM:00000004 [INF] Request finished in 489.2145ms 200 application/javascript (791a596a)
2020-07-01T21:50:10.0129412+07:00 0HM0TPO3RCGFP:00000005 [INF] Request finished in 81.9398ms 200 application/javascript (791a596a)
2020-07-01T21:50:10.0361497+07:00 0HM0TPO3RCGFP:00000006 [INF] Request starting HTTP/1.1 GET https://localhost:5001/lib/jquery-validation/dist/jquery.validate.js   (ca22a1cb)
2020-07-01T21:50:10.0430844+07:00 0HM0TPO3RCGFL:00000008 [INF] Request starting HTTP/1.1 GET https://localhost:5001/images/Icon/dormitory.png   (ca22a1cb)
2020-07-01T21:50:10.0518923+07:00 0HM0TPO3RCGFO:00000006 [INF] Sending file. Request path: '"/lib/bootbox/bootbox.js"'. Physical path: '"D:\Dormitory\domitory\DormitoryManagement\wwwroot\lib\bootbox\bootbox.js"' (27b0a520)
2020-07-01T21:50:10.0577877+07:00 0HM0TPO3RCGFM:00000005 [INF] Request starting HTTP/1.1 GET https://localhost:5001/lib/jquery-validation-unobtrusive/jquery.validate.unobtrusive.js   (ca22a1cb)
2020-07-01T21:50:10.0695821+07:00 0HM0TPO3RCGFQ:00000004 [INF] Sending file. Request path: '"/lib/notifyjs/dist/notify.js"'. Physical path: '"D:\Dormitory\domitory\DormitoryManagement\wwwroot\lib\notifyjs\dist\notify.js"' (27b0a520)
2020-07-01T21:50:10.0725243+07:00 0HM0TPO3RCGFL:00000008 [INF] Sending file. Request path: '"/images/Icon/dormitory.png"'. Physical path: '"D:\Dormitory\domitory\DormitoryManagement\wwwroot\images\Icon\dormitory.png"' (27b0a520)
2020-07-01T21:50:10.0798932+07:00 0HM0TPO3RCGFQ:00000004 [INF] Request finished in 162.7419ms 200 application/javascript (791a596a)
2020-07-01T21:50:10.0832885+07:00 0HM0TPO3RCGFL:00000008 [INF] Request finished in 46.2521ms 200 image/png (791a596a)
2020-07-01T21:50:10.0866254+07:00 0HM0TPO3RCGFO:00000006 [INF] Request finished in 126.8955ms 200 application/javascript (791a596a)
2020-07-01T21:50:10.0902677+07:00 0HM0TPO3RCGFL:00000009 [INF] Request starting HTTP/1.1 GET https://localhost:5001/images/faces/face3.jpg   (ca22a1cb)
2020-07-01T21:50:10.0974653+07:00 0HM0TPO3RCGFQ:00000005 [INF] Request starting HTTP/1.1 GET https://localhost:5001/images/logo-mini.svg   (ca22a1cb)
2020-07-01T21:50:10.1003362+07:00 0HM0TPO3RCGFO:00000007 [INF] Request starting HTTP/1.1 GET https://localhost:5001/images/faces/face4.jpg   (ca22a1cb)
2020-07-01T21:50:10.1187613+07:00 0HM0TPO3RCGFP:00000006 [INF] Sending file. Request path: '"/lib/jquery-validation/dist/jquery.validate.js"'. Physical path: '"D:\Dormitory\domitory\DormitoryManagement\wwwroot\lib\jquery-validation\dist\jquery.validate.js"' (27b0a520)
2020-07-01T21:50:10.1307583+07:00 0HM0TPO3RCGFL:00000009 [INF] Sending file. Request path: '"/images/faces/face3.jpg"'. Physical path: '"D:\Dormitory\domitory\DormitoryManagement\wwwroot\images\faces\face3.jpg"' (27b0a520)
2020-07-01T21:50:10.1521424+07:00 0HM0TPO3RCGFP:00000006 [INF] Request finished in 94.8464ms 200 application/javascript (791a596a)
2020-07-01T21:50:10.1747143+07:00 0HM0TPO3RCGFQ:00000005 [INF] Sending file. Request path: '"/images/logo-mini.svg"'. Physical path: '"D:\Dormitory\domitory\DormitoryManagement\wwwroot\images\logo-mini.svg"' (27b0a520)
2020-07-01T21:50:10.1814724+07:00 0HM0TPO3RCGFP:00000007 [INF] Request starting HTTP/1.1 GET https://localhost:5001/images/faces-clipart/pic-4.png   (ca22a1cb)
2020-07-01T21:50:10.1849918+07:00 0HM0TPO3RCGFQ:00000005 [INF] Request finished in 93.4932ms 200 image/svg+xml (791a596a)
2020-07-01T21:50:10.1891891+07:00 0HM0TPO3RCGFL:00000009 [INF] Request finished in 47.4965ms 200 image/jpeg (791a596a)
2020-07-01T21:50:10.1944103+07:00 0HM0TPO3RCGFQ:00000006 [INF] Request starting HTTP/1.1 GET https://localhost:5001/images/faces-clipart/pic-3.png   (ca22a1cb)
2020-07-01T21:50:10.2047780+07:00 0HM0TPO3RCGFL:0000000A [INF] Request starting HTTP/1.1 GET https://localhost:5001/images/faces-clipart/pic-2.png   (ca22a1cb)
2020-07-01T21:50:10.2131319+07:00 0HM0TPO3RCGFP:00000007 [INF] Sending file. Request path: '"/images/faces-clipart/pic-4.png"'. Physical path: '"D:\Dormitory\domitory\DormitoryManagement\wwwroot\images\faces-clipart\pic-4.png"' (27b0a520)
2020-07-01T21:50:10.2180344+07:00 0HM0TPO3RCGFQ:00000006 [INF] Sending file. Request path: '"/images/faces-clipart/pic-3.png"'. Physical path: '"D:\Dormitory\domitory\DormitoryManagement\wwwroot\images\faces-clipart\pic-3.png"' (27b0a520)
2020-07-01T21:50:10.2214524+07:00 0HM0TPO3RCGFP:00000007 [INF] Request finished in 56.9991ms 200 image/png (791a596a)
2020-07-01T21:50:10.2247866+07:00 0HM0TPO3RCGFQ:00000006 [INF] Request finished in 32.9934ms 200 image/png (791a596a)
2020-07-01T21:50:10.2284791+07:00 0HM0TPO3RCGFP:00000008 [INF] Request starting HTTP/1.1 GET https://localhost:5001/images/faces/face5.jpg   (ca22a1cb)
2020-07-01T21:50:10.2464594+07:00 0HM0TPO3RCGFQ:00000007 [INF] Request starting HTTP/1.1 GET https://localhost:5001/images/faces/face6.jpg   (ca22a1cb)
2020-07-01T21:50:10.2502740+07:00 0HM0TPO3RCGFN:00000001 [INF] Sending file. Request path: '"/css/style.css"'. Physical path: '"D:\Dormitory\domitory\DormitoryManagement\wwwroot\css\style.css"' (27b0a520)
2020-07-01T21:50:10.2530461+07:00 0HM0TPO3RCGFO:00000007 [INF] Sending file. Request path: '"/images/faces/face4.jpg"'. Physical path: '"D:\Dormitory\domitory\DormitoryManagement\wwwroot\images\faces\face4.jpg"' (27b0a520)
2020-07-01T21:50:10.2709944+07:00 0HM0TPO3RCGFN:00000001 [INF] Request finished in 1914.9776ms 200 text/css (791a596a)
2020-07-01T21:50:10.2772281+07:00 0HM0TPO3RCGFO:00000007 [INF] Request finished in 167.7563ms 200 image/jpeg (791a596a)
2020-07-01T21:50:10.2855015+07:00 0HM0TPO3RCGFN:00000002 [INF] Request starting HTTP/1.1 GET https://localhost:5001/images/faces/face2.jpg   (ca22a1cb)
2020-07-01T21:50:10.2923841+07:00 0HM0TPO3RCGFO:00000008 [INF] Request starting HTTP/1.1 GET https://localhost:5001/images/faces-clipart/pic-1.png   (ca22a1cb)
2020-07-01T21:50:10.3015141+07:00 0HM0TPO3RCGFQ:00000007 [INF] Sending file. Request path: '"/images/faces/face6.jpg"'. Physical path: '"D:\Dormitory\domitory\DormitoryManagement\wwwroot\images\faces\face6.jpg"' (27b0a520)
2020-07-01T21:50:10.3078844+07:00 0HM0TPO3RCGFP:00000008 [INF] Sending file. Request path: '"/images/faces/face5.jpg"'. Physical path: '"D:\Dormitory\domitory\DormitoryManagement\wwwroot\images\faces\face5.jpg"' (27b0a520)
2020-07-01T21:50:10.3123824+07:00 0HM0TPO3RCGFQ:00000007 [INF] Request finished in 76.6735ms 200 image/jpeg (791a596a)
2020-07-01T21:50:10.3153110+07:00 0HM0TPO3RCGFN:00000002 [INF] Sending file. Request path: '"/images/faces/face2.jpg"'. Physical path: '"D:\Dormitory\domitory\DormitoryManagement\wwwroot\images\faces\face2.jpg"' (27b0a520)
2020-07-01T21:50:10.3194751+07:00 0HM0TPO3RCGFQ:00000008 [INF] Request starting HTTP/1.1 GET https://localhost:5001/fonts/Poppins/Poppins-Regular.ttf   (ca22a1cb)
2020-07-01T21:50:10.3222138+07:00 0HM0TPO3RCGFN:00000002 [INF] Request finished in 44.9938ms 200 image/jpeg (791a596a)
2020-07-01T21:50:10.3243526+07:00 0HM0TPO3RCGFO:00000008 [INF] Sending file. Request path: '"/images/faces-clipart/pic-1.png"'. Physical path: '"D:\Dormitory\domitory\DormitoryManagement\wwwroot\images\faces-clipart\pic-1.png"' (27b0a520)
2020-07-01T21:50:10.3285372+07:00 0HM0TPO3RCGFN:00000003 [INF] Request starting HTTP/1.1 GET https://localhost:5001/fonts/Poppins/Poppins-SemiBold.ttf   (ca22a1cb)
2020-07-01T21:50:10.3343444+07:00 0HM0TPO3RCGFO:00000008 [INF] Request finished in 48.3228ms 200 image/png (791a596a)
2020-07-01T21:50:10.3450137+07:00 0HM0TPO3RCGFP:00000008 [INF] Request finished in 87.6533ms 200 image/jpeg (791a596a)
2020-07-01T21:50:10.3530164+07:00 0HM0TPO3RCGFO:00000009 [INF] Request starting HTTP/1.1 GET https://localhost:5001/fonts/Poppins/Poppins-Bold.ttf   (ca22a1cb)
2020-07-01T21:50:10.3635357+07:00 0HM0TPO3RCGFP:00000009 [INF] Request starting HTTP/1.1 GET https://localhost:5001/node_modules/mdi/fonts/materialdesignicons-webfont.woff2?v=2.1.19   (ca22a1cb)
2020-07-01T21:50:10.3814334+07:00 0HM0TPO3RCGFM:00000005 [INF] Sending file. Request path: '"/lib/jquery-validation-unobtrusive/jquery.validate.unobtrusive.js"'. Physical path: '"D:\Dormitory\domitory\DormitoryManagement\wwwroot\lib\jquery-validation-unobtrusive\jquery.validate.unobtrusive.js"' (27b0a520)
2020-07-01T21:50:10.4134306+07:00 0HM0TPO3RCGFN:00000003 [INF] Sending file. Request path: '"/fonts/Poppins/Poppins-SemiBold.ttf"'. Physical path: '"D:\Dormitory\domitory\DormitoryManagement\wwwroot\fonts\Poppins\Poppins-SemiBold.ttf"' (27b0a520)
2020-07-01T21:50:10.4198328+07:00 0HM0TPO3RCGFP:00000009 [INF] Sending file. Request path: '"/node_modules/mdi/fonts/materialdesignicons-webfont.woff2"'. Physical path: '"D:\Dormitory\domitory\DormitoryManagement\wwwroot\node_modules\mdi\fonts\materialdesignicons-webfont.woff2"' (27b0a520)
2020-07-01T21:50:10.4238129+07:00 0HM0TPO3RCGFQ:00000008 [INF] Sending file. Request path: '"/fonts/Poppins/Poppins-Regular.ttf"'. Physical path: '"D:\Dormitory\domitory\DormitoryManagement\wwwroot\fonts\Poppins\Poppins-Regular.ttf"' (27b0a520)
2020-07-01T21:50:10.4270070+07:00 0HM0TPO3RCGFP:00000009 [INF] Request finished in 74.7605ms 200 font/woff2 (791a596a)
2020-07-01T21:50:10.4298823+07:00 0HM0TPO3RCGFQ:00000008 [INF] Request finished in 111.4211ms 200 application/x-font-ttf (791a596a)
2020-07-01T21:50:10.4329334+07:00 0HM0TPO3RCGFP:0000000A [INF] Request starting HTTP/1.1 GET https://localhost:5001/images/browser-logo/opera-logo.png   (ca22a1cb)
2020-07-01T21:50:10.4414403+07:00 0HM0TPO3RCGFQ:00000009 [INF] Request starting HTTP/1.1 GET https://localhost:5001/images/browser-logo/chrome-logo.png   (ca22a1cb)
2020-07-01T21:50:10.4480870+07:00 0HM0TPO3RCGFN:00000003 [INF] Request finished in 92.8648ms 200 application/x-font-ttf (791a596a)
2020-07-01T21:50:10.4546380+07:00 0HM0TPO3RCGFO:00000009 [INF] Sending file. Request path: '"/fonts/Poppins/Poppins-Bold.ttf"'. Physical path: '"D:\Dormitory\domitory\DormitoryManagement\wwwroot\fonts\Poppins\Poppins-Bold.ttf"' (27b0a520)
2020-07-01T21:50:10.4614565+07:00 0HM0TPO3RCGFP:0000000A [INF] Sending file. Request path: '"/images/browser-logo/opera-logo.png"'. Physical path: '"D:\Dormitory\domitory\DormitoryManagement\wwwroot\images\browser-logo\opera-logo.png"' (27b0a520)
2020-07-01T21:50:10.4652824+07:00 0HM0TPO3RCGFQ:00000009 [INF] Sending file. Request path: '"/images/browser-logo/chrome-logo.png"'. Physical path: '"D:\Dormitory\domitory\DormitoryManagement\wwwroot\images\browser-logo\chrome-logo.png"' (27b0a520)
2020-07-01T21:50:10.4669965+07:00 0HM0TPO3RCGFP:0000000A [INF] Request finished in 34.403ms 200 image/png (791a596a)
2020-07-01T21:50:10.4724772+07:00 0HM0TPO3RCGFQ:00000009 [INF] Request finished in 35.4085ms 200 image/png (791a596a)
2020-07-01T21:50:10.4805799+07:00 0HM0TPO3RCGFP:0000000B [INF] Request starting HTTP/1.1 GET https://localhost:5001/images/browser-logo/firefox-logo.png   (ca22a1cb)
2020-07-01T21:50:10.4870936+07:00 0HM0TPO3RCGFL:0000000A [INF] Sending file. Request path: '"/images/faces-clipart/pic-2.png"'. Physical path: '"D:\Dormitory\domitory\DormitoryManagement\wwwroot\images\faces-clipart\pic-2.png"' (27b0a520)
2020-07-01T21:50:10.4929817+07:00 0HM0TPO3RCGFQ:0000000A [INF] Request starting HTTP/1.1 GET https://localhost:5001/images/browser-logo/explorer-logo.png   (ca22a1cb)
2020-07-01T21:50:10.4949965+07:00 0HM0TPO3RCGFP:0000000B [INF] Sending file. Request path: '"/images/browser-logo/firefox-logo.png"'. Physical path: '"D:\Dormitory\domitory\DormitoryManagement\wwwroot\images\browser-logo\firefox-logo.png"' (27b0a520)
2020-07-01T21:50:10.5003246+07:00 0HM0TPO3RCGFL:0000000A [INF] Request finished in 303.5667ms 200 image/png (791a596a)
2020-07-01T21:50:10.5049760+07:00 0HM0TPO3RCGFP:0000000B [INF] Request finished in 29.0317ms 200 image/png (791a596a)
2020-07-01T21:50:10.5091321+07:00 0HM0TPO3RCGFL:0000000B [INF] Request starting HTTP/1.1 GET https://localhost:5001/images/browser-logo/netscape-logo.png   (ca22a1cb)
2020-07-01T21:50:10.5192779+07:00 0HM0TPO3RCGFN:00000004 [INF] Request starting HTTP/1.1 GET https://localhost:5001/fonts/Poppins/Poppins-Light.ttf   (ca22a1cb)
2020-07-01T21:50:10.6154572+07:00 0HM0TPO3RCGFO:00000009 [INF] Request finished in 120.2841ms 200 application/x-font-ttf (791a596a)
2020-07-01T21:50:10.6320209+07:00 0HM0TPO3RCGFL:0000000B [INF] Sending file. Request path: '"/images/browser-logo/netscape-logo.png"'. Physical path: '"D:\Dormitory\domitory\DormitoryManagement\wwwroot\images\browser-logo\netscape-logo.png"' (27b0a520)
2020-07-01T21:50:10.6388709+07:00 0HM0TPO3RCGFN:00000004 [INF] Sending file. Request path: '"/fonts/Poppins/Poppins-Light.ttf"'. Physical path: '"D:\Dormitory\domitory\DormitoryManagement\wwwroot\fonts\Poppins\Poppins-Light.ttf"' (27b0a520)
2020-07-01T21:50:10.6488529+07:00 0HM0TPO3RCGFL:0000000B [INF] Request finished in 131.6615ms 200 image/png (791a596a)
2020-07-01T21:50:10.6745310+07:00 0HM0TPO3RCGFQ:0000000A [INF] Sending file. Request path: '"/images/browser-logo/explorer-logo.png"'. Physical path: '"D:\Dormitory\domitory\DormitoryManagement\wwwroot\images\browser-logo\explorer-logo.png"' (27b0a520)
2020-07-01T21:50:10.6832554+07:00 0HM0TPO3RCGFN:00000004 [INF] Request finished in 190.7952ms 200 application/x-font-ttf (791a596a)
2020-07-01T21:50:10.6881932+07:00 0HM0TPO3RCGFQ:0000000A [INF] Request finished in 203.6268ms 200 image/png (791a596a)
2020-07-01T21:50:10.6912015+07:00 0HM0TPO3RCGFO:0000000A [INF] Request starting HTTP/1.1 GET https://localhost:5001/images/browser-logo/safari-logo.png   (ca22a1cb)
2020-07-01T21:50:10.6927180+07:00 0HM0TPO3RCGFM:00000005 [INF] Request finished in 358.1511ms 200 application/javascript (791a596a)
2020-07-01T21:50:10.7017237+07:00 0HM0TPO3RCGFM:00000006 [INF] Request starting HTTP/1.1 GET https://localhost:5001/images/faces/face1.jpg   (ca22a1cb)
2020-07-01T21:50:10.7031406+07:00 0HM0TPO3RCGFO:0000000A [INF] Sending file. Request path: '"/images/browser-logo/safari-logo.png"'. Physical path: '"D:\Dormitory\domitory\DormitoryManagement\wwwroot\images\browser-logo\safari-logo.png"' (27b0a520)
2020-07-01T21:50:10.7085115+07:00 0HM0TPO3RCGFO:0000000A [INF] Request finished in 87.3492ms 200 image/png (791a596a)
2020-07-01T21:50:10.7274485+07:00 0HM0TPO3RCGFM:00000006 [INF] Sending file. Request path: '"/images/faces/face1.jpg"'. Physical path: '"D:\Dormitory\domitory\DormitoryManagement\wwwroot\images\faces\face1.jpg"' (27b0a520)
2020-07-01T21:50:10.7317407+07:00 0HM0TPO3RCGFM:00000006 [INF] Request finished in 34.684ms 200 image/jpeg (791a596a)
2020-07-01T21:50:17.0119932+07:00 0HM0TPO3RCGFM:00000007 [INF] Request starting HTTP/1.1 GET https://localhost:5001/images/favicon.png   (ca22a1cb)
2020-07-01T21:50:17.0734053+07:00 0HM0TPO3RCGFM:00000007 [INF] Sending file. Request path: '"/images/favicon.png"'. Physical path: '"D:\Dormitory\domitory\DormitoryManagement\wwwroot\images\favicon.png"' (27b0a520)
2020-07-01T21:50:17.0820702+07:00 0HM0TPO3RCGFM:00000007 [INF] Request finished in 141.5928ms 200 image/png (791a596a)
